<?xml version="1.0" encoding="UTF-8" standalone="no"?>
<!-- Created with Inkscape (http://www.inkscape.org/) -->

<svg
   xmlns:dc="http://purl.org/dc/elements/1.1/"
   xmlns:cc="http://creativecommons.org/ns#"
   xmlns:rdf="http://www.w3.org/1999/02/22-rdf-syntax-ns#"
   xmlns:svg="http://www.w3.org/2000/svg"
   xmlns="http://www.w3.org/2000/svg"
   xmlns:sodipodi="http://sodipodi.sourceforge.net/DTD/sodipodi-0.dtd"
   xmlns:inkscape="http://www.inkscape.org/namespaces/inkscape"
   width="1594.49"
   height="1594.3483"
   id="svg3201"
   version="1.1"
   inkscape:version="0.47 r22583"
   sodipodi:docname="Neues Dokument 5">
  <defs
     id="defs3203">
    <inkscape:perspective
       sodipodi:type="inkscape:persp3d"
       inkscape:vp_x="0 : 526.18109 : 1"
       inkscape:vp_y="0 : 1000 : 0"
       inkscape:vp_z="744.09448 : 526.18109 : 1"
       inkscape:persp3d-origin="372.04724 : 350.78739 : 1"
       id="perspective3209" />
    <inkscape:perspective
       id="perspective3179"
       inkscape:persp3d-origin="0.5 : 0.33333333 : 1"
       inkscape:vp_z="1 : 0.5 : 1"
       inkscape:vp_y="0 : 1000 : 0"
       inkscape:vp_x="0 : 0.5 : 1"
       sodipodi:type="inkscape:persp3d" />
    <inkscape:perspective
       id="perspective3262"
       inkscape:persp3d-origin="0.5 : 0.33333333 : 1"
       inkscape:vp_z="1 : 0.5 : 1"
       inkscape:vp_y="0 : 1000 : 0"
       inkscape:vp_x="0 : 0.5 : 1"
       sodipodi:type="inkscape:persp3d" />
  </defs>
  <sodipodi:namedview
     id="base"
     pagecolor="#ffffff"
     bordercolor="#666666"
     borderopacity="1.0"
     inkscape:pageopacity="0.0"
     inkscape:pageshadow="2"
     inkscape:zoom="0.35"
     inkscape:cx="631.17153"
     inkscape:cy="772.66416"
     inkscape:document-units="px"
     inkscape:current-layer="layer1"
     showgrid="false"
     units="cm"
     inkscape:window-width="1542"
     inkscape:window-height="1026"
     inkscape:window-x="134"
     inkscape:window-y="-4"
     inkscape:window-maximized="1" />
  <metadata
     id="metadata3206">
    <rdf:RDF>
      <cc:Work
         rdf:about="">
        <dc:format>image/svg+xml</dc:format>
        <dc:type
           rdf:resource="http://purl.org/dc/dcmitype/StillImage" />
        <dc:title></dc:title>
      </cc:Work>
    </rdf:RDF>
  </metadata>
  <g
     inkscape:label="Ebene 1"
     inkscape:groupmode="layer"
     id="layer1"
     transform="translate(301.08509,1022.9219)">
    <path
       style="fill:#000000;fill-opacity:1;fill-rule:nonzero;stroke:none"
       d="m -301.08509,-1022.9204 0,1594.34824 1594.48819,0 0,-1594.34824 -1594.48819,0 z m 1503.66649,79.48649 c 8.9023,0.2291 15.4045,13.8879 6.997,20.0116 -2.0903,1.73946 -4.8057,2.89647 -7.5568,2.65886 -11.6315,0.5706 -14.447,-18.80836 -3.3586,-21.83076 1.3345,-0.5742 2.6466,-0.8724 3.9184,-0.8397 z m -1412.70481,0.14 c 9.05585,-0.017 15.18126,12.633 7.97664,19.1719 -2.4588,2.51547 -6.22109,3.41933 -9.65593,3.21862 -11.91644,-1.03068 -11.92719,-21.10442 -0.13994,-22.25062 0.62688,-0.1195 1.21551,-0.1388 1.81923,-0.1399 z m 606.92428,197.03693 c 4.64358,5e-5 9.87556,0.74171 15.67339,2.379 l 0,6.85711 c -5.82467,-2.25464 -10.99724,-3.35854 -15.53345,-3.35858 -7.16674,4e-5 -10.77547,2.4455 -10.77546,7.27693 -10e-6,1.95949 0.75701,3.5636 2.09911,4.758 1.34207,1.19449 3.79323,2.37694 7.41688,3.63846 l 5.03788,1.81924 4.89793,1.67929 c 7.48879,2.63049 11.19524,7.01349 11.19529,13.2944 -5e-5,4.77783 -1.91269,8.61652 -5.73759,11.47516 -3.82497,2.85865 -8.97839,4.33818 -15.39351,4.33818 -4.45574,0 -10.15341,-1.03301 -17.21275,-2.93877 l 0,-7.83669 c 7.0325,3.16732 12.849,4.75799 17.49263,4.75799 3.91886,0 7.0408,-0.69567 9.37605,-2.23905 2.33519,-1.54339 3.49849,-3.69369 3.49853,-6.29735 -4e-5,-1.98627 -0.71681,-3.60381 -2.09912,-4.758 -1.38238,-1.15419 -4.21492,-2.4746 -8.5364,-4.05829 l -5.31776,-1.95917 c -5.28782,-1.9594 -9.00197,-3.95064 -11.05534,-6.01747 -2.0534,-2.06678 -3.07872,-4.82073 -3.07871,-8.25652 -10e-6,-4.64358 1.60409,-8.22544 4.758,-10.77546 3.15388,-2.54992 7.57711,-3.77836 13.2944,-3.77841 z m 104.67589,0 c 4.56307,5e-5 9.48648,0.68229 14.69381,2.23906 l 0,7.27694 c -5.31467,-2.44255 -10.35698,-3.63843 -14.97369,-3.63847 -5.34149,4e-5 -9.70532,1.95868 -13.15446,5.87752 -3.44917,3.91893 -5.17781,8.90751 -5.17781,14.97369 0,6.09306 1.98546,11.06824 5.87752,14.97369 3.89202,3.90546 8.79434,5.87753 14.83375,5.87753 1.36887,0 3.19724,-0.0977 5.31776,-0.41983 l 0,-13.71422 -9.79587,0 0,-5.87752 17.63257,0 0,23.92992 c -5.39523,1.71785 -10.42209,2.65888 -15.25358,2.65888 -7.99885,0 -14.58579,-2.59113 -19.59174,-7.55682 -5.00599,-4.96569 -7.41688,-11.3667 -7.41688,-19.31186 0,-8.13297 2.42432,-14.68544 7.41688,-19.73169 4.99251,-5.04616 11.53925,-7.55677 19.59174,-7.55682 z m -520.860535,1.25947 35.82491,0 0,5.87753 -13.8541703,0 0,39.74325 13.8541703,0 0,6.01747 -35.82491,0 0,-6.01747 13.9940997,0 0,-39.74325 -13.9940997,0 0,-5.87753 z m 93.62055,0 47.719895,0 0,5.87753 -19.87163,0 0,45.76072 -7.976635,0 0,-45.76072 -19.87163,0 0,-5.87753 z m 105.375605,0 7.97664,0 0,25.32933 21.55092,-25.32933 7.97663,0 -20.85121,24.34974 24.9095,27.28851 -9.51599,0 -24.06985,-26.30892 0,26.30892 -7.97664,0 0,-51.63825 z m 99.63802,0 35.68496,0 0,5.87753 -13.85416,0 0,39.74325 13.85416,0 0,6.01747 -35.68496,0 0,-6.01747 13.85416,0 0,-39.74325 -13.85416,0 0,-5.87753 z m 297.51464,0 7.97664,0 0,22.53051 21.8308,0 0,-22.53051 7.97664,0 0,51.63825 -7.97664,0 0,-23.09027 -21.8308,0 0,23.09027 -7.97664,0 0,-51.63825 z m 114.47177,0 7.97664,0 20.29145,51.63825 -8.39646,0 -4.89794,-13.01452 -23.51009,0 -5.03788,13.01452 -6.71717,0 20.29145,-51.63825 z m 87.6031,0 7.9766,0 0,45.62078 27.8483,0 0,6.01747 -35.8249,0 0,-51.63825 z m 100.6176,0 36.6646,0 0,5.87753 -28.8279,0 0,17.77251 24.6296,0 0,6.01746 -24.6296,0 0,21.97075 -7.8367,0 0,-51.63825 z m 98.2386,0 34.84529,0 0,5.87753 -26.86869,0 0,15.67339 22.81039,0 0,6.01747 -22.81039,0 0,18.05239 28.82789,0 0,6.01747 -36.80449,0 0,-51.63825 z m -283.24065,7.97664 -9.37605,24.76957 18.7521,0 -9.37605,-24.76957 z m -297.79453,100.33773 c 6.81774,4e-5 12.19345,2.51831 16.23316,7.41687 4.03962,4.89866 6.15735,11.46451 6.1574,19.73169 -5e-5,5.95889 -1.17103,11.08543 -3.35858,15.39351 -2.18764,4.30808 -5.38242,7.50859 -9.51599,9.65593 4.50936,3.16733 9.58993,5.40191 15.25357,6.71717 l -4.05829,6.99706 c -6.89835,-2.71101 -13.07134,-6.7414 -18.33228,-11.89499 -1.3421,0.0805 -2.354,0.13994 -3.0787,0.13994 -6.44202,0 -11.674,-2.42432 -15.6734,-7.41688 -3.99941,-4.99255 -6.01746,-11.53924 -6.01746,-19.59174 0,-8.26718 2.11773,-14.83303 6.15741,-19.73169 4.03965,-4.89856 9.41535,-7.41683 16.23316,-7.41687 z m -217.8882,1.11953 7.41687,0 23.78998,37.64414 0,-37.5042 6.43729,0 0,51.63824 -7.27693,0 -23.92992,-37.78408 0,37.78408 -6.43729,0 0,-51.77818 z m -204.034025,0.13994 47.57995,0 0,6.01746 -19.7316903,0 0,45.62078 -7.97664,0 0,-45.62078 -19.8716197,0 0,-6.01746 z m 107.19483,0 34.845315,0 0,6.01746 -26.868675,0 0,15.6734 22.810385,0 0,5.87752 -22.810385,0 0,18.19234 28.827845,0 0,5.87752 -36.804485,0 0,-51.63824 z m 191.579275,0 9.23611,0 14.97369,23.92991 16.3731,-23.92991 7.55682,0 -20.57133,30.50714 0,21.1311 -7.8367,0 0,-21.1311 -19.73169,-30.50714 z m 204.03404,0 7.83669,0 0,31.34679 c 0,5.4757 0.9276,9.43897 2.65888,11.89499 1.73129,2.45602 4.53123,3.77841 8.39647,3.77841 4.07992,0 7.01787,-1.32239 8.81628,-3.77841 1.79837,-2.45602 2.65884,-6.42502 2.65888,-12.03493 l 0,-31.20685 6.99705,0 0,30.08732 c -4e-5,6.46886 -0.84905,11.03582 -2.37899,13.85416 -3.24789,5.98567 -8.63125,8.95623 -16.09322,8.95623 -6.46886,0 -11.17379,-1.77468 -14.27399,-5.31776 -3.1002,-3.54308 -4.61805,-8.87853 -4.61805,-16.23316 l 0,-31.34679 z m 114.19188,0 7.97664,0 20.29145,51.63824 -8.39646,0 -4.89794,-12.87458 -23.51009,0 -5.03788,12.87458 -6.85711,0 20.43139,-51.63824 z m 86.06374,0 14.41393,0 c 6.01249,4e-5 10.25945,0.54624 12.59469,1.53935 4.99252,2.06687 7.41683,5.68134 7.41688,10.9154 -5e-5,3.59682 -0.86052,6.69388 -2.65888,9.09617 -1.79841,2.40237 -4.7421,4.51044 -8.95623,6.57723 l 18.19234,23.51009 -9.65594,0 -16.23316,-21.41098 -7.13699,0 0,21.41098 -7.97664,0 0,-51.63824 z m 93.06084,0 47.7198,0 0,6.01746 -19.8716,0 0,45.62078 -7.9766,0 0,-45.62078 -19.8716,0 0,-6.01746 z m 107.3347,0 34.8453,0 0,6.01746 -27.0086,0 0,15.6734 22.9504,0 0,5.87752 -22.9504,0 0,18.19234 28.8279,0 0,5.87752 -36.6646,0 0,-51.63824 z m 98.2386,0 14.414,0 c 6.0125,4e-5 10.11949,0.54624 12.45469,1.53935 4.9925,2.06687 7.5568,5.68134 7.5568,10.9154 0,3.59682 -0.8605,6.69388 -2.6588,9.09617 -1.7985,2.40237 -4.8821,4.51044 -9.09619,6.57723 l 18.33229,23.51009 -9.656,0 -16.23309,-21.41098 -7.277,0 0,21.41098 -7.8367,0 0,-51.63824 z m -579.77568,4.75799 c -4.45574,5e-5 -7.95333,1.79384 -10.35564,5.4577 -2.40234,3.66391 -3.49854,8.93617 -3.49853,15.6734 -10e-6,6.7641 1.09619,11.8696 3.49853,15.53345 2.40231,3.66391 5.8999,5.59765 10.35564,5.59765 4.45568,0 7.93985,-1.93374 10.35563,-5.59765 2.41572,-3.66385 3.49849,-8.76935 3.49853,-15.53345 -4e-5,-6.73723 -1.08281,-12.00949 -3.49853,-15.6734 -2.41578,-3.66386 -5.89995,-5.45765 -10.35563,-5.4577 z m 289.11818,1.25947 0,18.19234 4.19823,0 c 4.26782,4e-5 7.57948,-0.9199 10.07576,-2.79882 2.49623,-1.87889 3.77836,-4.50257 3.77841,-7.69676 -5e-5,-2.97938 -0.91994,-4.91693 -2.79883,-6.01747 -1.87892,-1.10045 -5.44937,-1.67924 -10.49557,-1.67929 l -4.758,0 z m 298.4942,0 0,18.19234 4.1983,0 c 4.2678,4e-5 7.7194,-0.9199 10.2157,-2.79882 2.49619,-1.87889 3.77829,-4.50257 3.77839,-7.69676 -10e-5,-2.97938 -1.0599,-4.91693 -2.93879,-6.01747 -1.8789,-1.10045 -5.3094,-1.67924 -10.3556,-1.67929 l -4.898,0 z m -389.31593,2.09912 -9.37605,24.62962 18.7521,0 -9.37605,-24.62962 z m -217.18849,101.45725 7.55681,0 23.65004,37.5042 0.13994,0 0,-37.36426 6.43729,0 0,51.63824 -7.41688,0 -23.78998,-37.78408 -0.13994,0 0,37.78408 -6.43728,0 0,-51.77818 z m -398.831955,0.13994 15.5334497,0 c 17.1786303,5e-5 25.7491103,8.23516 25.7491503,24.76956 -4e-5,7.64988 -1.86669,13.88802 -5.59764,18.61216 -2.33526,2.97943 -5.1141303,5.02239 -8.5364003,6.29735 -3.42234,1.27496 -8.02382,1.95917 -13.71422,1.95917 l -13.4343397,0 0,-51.63824 z m 95.29984,0 47.719895,0 0,6.01747 -19.87163,0 0,45.62077 -7.976635,0 0,-45.62077 -19.87163,0 0,-6.01747 z m 99.218195,0 6.71717,0 6.29735,42.9619 0.13994,0 7.41687,-32.0465 7.69676,0 7.27693,31.48674 6.71717,-42.40214 6.01747,0 -8.5364,51.63824 -8.53641,0 -7.13699,-30.3672 -0.13994,0 -7.13699,30.3672 -9.09617,0 -7.69676,-51.63824 z m 107.47472,0 34.98526,0 0,6.01747 -27.00862,0 0,15.53345 22.81039,0 0,6.01747 -22.81039,0 0,18.19233 28.82785,0 0,5.87752 -36.80449,0 0,-51.63824 z m 191.43934,0 47.57995,0 0,6.01747 -19.73169,0 0,45.62077 -7.97663,0 0,-45.62077 -19.87163,0 0,-6.01747 z m 99.77796,0 9.09617,0 15.11363,23.78998 16.3731,-23.78998 7.55682,0 -20.57134,30.50715 0,21.13109 -7.97664,0 0,-21.13109 -19.59174,-30.50715 z m 108.17442,0 36.80449,0 0,6.01747 -28.82785,0 0,17.77251 24.62962,0 0,5.87752 -24.62962,0 0,21.97074 -7.97664,0 0,-51.63824 z m 96.5593,0 35.8249,0 0,6.01747 -13.9941,0 0,39.74325 13.9941,0 0,5.87752 -35.8249,0 0,-5.87752 13.8542,0 0,-39.74325 -13.8542,0 0,-6.01747 z m 93.2007,0 8.2566,0 16.513,41.00272 16.9329,-41.00272 6.7171,0 -20.4313,51.63824 -7.9767,0 -20.0116,-51.63824 z m 107.6147,0 34.84529,0 0,6.01747 -26.86869,0 0,15.53345 22.81039,0 0,6.01747 -22.81039,0 0,18.19233 28.82789,0 0,5.87752 -36.80449,0 0,-51.63824 z m -990.782535,6.01747 0,39.74325 3.9183497,0 c 7.56932,0 13.02555,-1.61176 16.23316,-4.61805 3.2075403,-3.00625 4.7579503,-8.02743 4.7579903,-15.11364 -4e-5,-7.19355 -1.43931,-12.29327 -4.3381703,-15.39351 -2.89893,-3.10015 -7.78980001,-4.61801 -14.55387,-4.61805 l -6.0174597,0 z m 111.11318,102.43684 c 6.817745,4e-5 12.333395,2.37837 16.373095,7.27693 4.03963,4.89865 6.01742,11.49133 6.01747,19.73169 -5e-5,8.26726 -1.97784,14.83307 -6.01747,19.73168 -4.0397,4.89861 -9.55535,7.41688 -16.373095,7.41688 -6.8178,0 -12.1935,-2.51827 -16.23316,-7.41688 -4.03967,-4.89861 -6.01747,-11.46442 -6.01746,-19.73168 -1e-5,-8.24036 1.97779,-14.83304 6.01746,-19.73169 4.03966,-4.89856 9.41536,-7.27689 16.23316,-7.27693 z m 298.774115,0 c 4.64358,4e-5 9.87556,0.74171 15.67339,2.37899 l 0,6.85711 c -5.82467,-2.25464 -10.99724,-3.35854 -15.53345,-3.35858 -7.16674,4e-5 -10.77547,2.4455 -10.77546,7.27693 -10e-6,1.95949 0.75701,3.5636 2.09911,4.758 1.34207,1.19449 3.79323,2.37694 7.41688,3.63847 l 5.03788,1.81923 4.89793,1.67929 c 7.48879,2.63049 11.19524,7.01349 11.19529,13.2944 -5e-5,4.77783 -1.91269,8.61652 -5.73759,11.47516 -3.82497,2.85865 -8.97839,4.33818 -15.39351,4.33818 -4.45574,0 -10.15341,-1.03301 -17.21275,-2.93876 l 0,-7.8367 c 7.0325,3.16732 12.849,4.75799 17.49263,4.75799 3.91886,0 7.0408,-0.69567 9.37605,-2.23905 2.33519,-1.54339 3.49849,-3.69369 3.49853,-6.29735 -4e-5,-1.98627 -0.71681,-3.60381 -2.09912,-4.758 -1.38238,-1.15419 -4.21492,-2.4746 -8.5364,-4.05829 l -5.31776,-1.95917 c -5.28782,-1.9594 -9.00197,-3.95064 -11.05534,-6.01747 -2.0534,-2.06678 -3.07872,-4.82073 -3.07871,-8.25652 -10e-6,-4.64358 1.60409,-8.22544 4.758,-10.77546 3.15388,-2.54992 7.57711,-3.77836 13.2944,-3.7784 z m 397.99234,0 c 6.8177,4e-5 12.1934,2.37837 16.2331,7.27693 4.0396,4.89865 6.0175,11.49133 6.0175,19.73169 0,8.26726 -1.9779,14.83307 -6.0175,19.73168 -4.0397,4.89861 -9.4154,7.41688 -16.2331,7.41688 -6.8178,0 -12.3335,-2.51827 -16.3731,-7.41688 -4.0397,-4.89861 -6.0175,-11.46442 -6.0175,-19.73168 0,-8.24036 1.9778,-14.83304 6.0175,-19.73169 4.0396,-4.89856 9.5553,-7.27689 16.3731,-7.27693 z m -820.054505,1.25946 47.57995,0 0,5.87753 -19.7316903,0 0,45.76072 -7.97664,0 0,-45.76072 -19.8716197,0 0,-5.87753 z m 207.252665,0 16.79293,0 c 5.98565,5e-5 10.18464,0.46573 12.73463,1.53936 5.20724,2.25473 7.83666,6.57257 7.8367,13.01451 -4e-5,5.42206 -2.09667,9.78781 -6.29735,12.87458 -4.20075,3.08681 -9.97126,4.61805 -17.35268,4.61805 l -5.87753,0 0,19.59175 -7.8367,0 0,-51.63825 z m 111.11319,0 7.97664,0 20.29145,51.63825 -8.39646,0 -4.758,-13.01452 -23.65004,0 -4.89793,13.01452 -6.85711,0 20.29145,-51.63825 z m 179.26447,0 47.57995,0 0,5.87753 -19.73169,0 0,45.76072 -7.97663,0 0,-45.76072 -19.87163,0 0,-5.87753 z m 107.19483,0 34.84532,0 0,5.87753 -26.86868,0 0,15.67339 22.81039,0 0,6.01747 -22.81039,0 0,18.05239 28.82786,0 0,6.01747 -36.8045,0 0,-51.63825 z m 100.75755,0 36.80449,0 0,5.87753 -28.82785,0 0,17.77251 24.62962,0 0,6.01746 -24.62962,0 0,21.97075 -7.97664,0 0,-51.63825 z m 195.3577,0 7.8367,0 0,31.3468 c 0,5.4757 0.9276,9.43896 2.6589,11.89499 1.7313,2.45602 4.5312,3.63846 8.3964,3.63846 4.0799,0 7.0179,-1.18244 8.8163,-3.63846 1.7984,-2.45603 2.6589,-6.56496 2.6589,-12.17487 l 0,-31.06692 6.997,0 0,29.94739 c 0,6.46886 -0.849,11.17576 -2.379,13.9941 -3.2478,5.98567 -8.6312,8.95623 -16.0932,8.95623 -6.4688,0 -11.1738,-1.77468 -14.274,-5.31776 -3.1002,-3.54309 -4.618,-9.01847 -4.618,-16.3731 l 0,-31.20686 z m 100.7575,0 14.414,0 c 6.0125,5e-5 10.11949,0.4063 12.45469,1.39942 4.9925,2.06687 7.5568,5.82127 7.5568,11.05534 0,3.59682 -0.8605,6.55394 -2.6588,8.95622 -1.7985,2.40238 -4.8821,4.65039 -9.09619,6.71717 l 18.33229,23.5101 -9.656,0 -16.23309,-21.55092 -7.277,0 0,21.55092 -7.8367,0 0,-51.63825 z m -878.409855,4.61806 c -4.45574,4e-5 -7.81338,1.93378 -10.21569,5.59764 -2.40235,3.6639 -3.63848,8.79622 -3.63847,15.53346 -1e-5,6.7641 1.23612,12.00953 3.63847,15.67339 2.40231,3.6639 5.75995,5.4577 10.21569,5.4577 4.455685,0 7.939855,-1.7938 10.355635,-5.4577 2.41571,-3.66386 3.63842,-8.90929 3.63846,-15.67339 -4e-5,-6.73724 -1.22275,-11.86956 -3.63846,-15.53346 -2.41578,-3.66386 -5.89995,-5.5976 -10.355635,-5.59764 z m 696.766455,0 c -4.4558,4e-5 -7.9533,1.93378 -10.3557,5.59764 -2.4023,3.6639 -3.4985,8.79622 -3.4985,15.53346 0,6.7641 1.0962,12.00953 3.4985,15.67339 2.4024,3.6639 5.8999,5.4577 10.3557,5.4577 4.4556,0 7.7999,-1.7938 10.2157,-5.4577 2.4157,-3.66386 3.6384,-8.90929 3.6384,-15.67339 0,-6.73724 -1.2227,-11.86956 -3.6384,-15.53346 -2.4158,-3.66386 -5.7601,-5.5976 -10.2157,-5.59764 z m -604.96514,1.25947 0,20.15151 5.03788,0 c 10.73663,4e-5 16.09318,-3.67958 16.09322,-11.19529 -4e-5,-3.16728 -1.0522,-5.48815 -3.0787,-6.85711 -2.02658,-1.36887 -5.35165,-2.09907 -10.07576,-2.09911 l -7.97664,0 z m 794.44524,0 0,18.19233 4.1983,0 c 4.2678,5e-5 7.7194,-0.91989 10.2157,-2.79882 2.49619,-1.87888 3.77829,-4.36262 3.77839,-7.55681 -10e-5,-2.97938 -1.0599,-5.05687 -2.93879,-6.15741 -1.8789,-1.10045 -5.3094,-1.67925 -10.3556,-1.67929 l -4.898,0 z m -687.95011,2.09911 -9.37605,24.76957 18.89204,0 -9.51599,-24.76957 z m 299.33388,100.33773 c 6.81775,4e-5 12.3334,2.51831 16.3731,7.41687 4.03962,4.89866 6.01742,11.49133 6.01747,19.73169 -5e-5,8.26727 -1.97785,14.83308 -6.01747,19.73169 -4.0397,4.8986 -9.55535,7.27693 -16.3731,7.27693 -6.81779,0 -12.1935,-2.37833 -16.23316,-7.27693 -4.03966,-4.89861 -6.01746,-11.46442 -6.01746,-19.73169 0,-8.24036 1.9778,-14.83303 6.01746,-19.73169 4.03966,-4.89856 9.41537,-7.41683 16.23316,-7.41687 z m 80.74598,1.11953 7.41688,0 23.78997,37.64414 0,-37.5042 6.57723,0 0,51.63824 -7.41687,0 -23.78998,-37.78408 -0.13994,0 0,37.78408 -6.43729,0 0,-51.77818 z m 198.99615,0 7.5568,0 23.6501,37.64414 0.1399,0 0,-37.5042 6.4373,0 0,51.63824 -7.2769,0 -23.93,-37.78408 -0.1399,0 0,37.78408 -6.4373,0 0,-51.77818 z m -891.704285,0.13994 36.66455,0 0,6.01746 -28.8278503,0 0,17.77251 24.6296203,0 0,6.01747 -24.6296203,0 0,21.8308 -7.8366997,0 0,-51.63824 z m 96.55932,0 35.684955,0 0,6.01746 -13.85416,0 0,39.74326 13.85416,0 0,5.87752 -35.684955,0 0,-5.87752 13.85416,0 0,-39.74326 -13.85416,0 0,-6.01746 z m 93.060785,0 8.39646,0 16.51304,41.14266 16.79293,-41.14266 6.85711,0 -20.57133,51.63824 -7.97664,0 -20.01157,-51.63824 z m 107.61466,0 34.98526,0 0,6.01746 -27.00862,0 0,15.6734 22.81039,0 0,5.87752 -22.81039,0 0,18.19234 28.82785,0 0,5.87752 -36.80449,0 0,-51.63824 z m 91.94126,0 47.57995,0 0,6.01746 -19.87162,0 0,45.62078 -7.97664,0 0,-45.62078 -19.73169,0 0,-6.01746 z m 99.07825,0 6.85712,0 6.1574,42.9619 0.13994,0 7.55682,-32.0465 7.55681,0 7.41688,31.62667 6.71717,-42.54207 6.01746,0 -8.5364,51.63824 -8.67634,0 -6.99706,-30.22726 -0.13994,0 -7.13699,30.22726 -9.23611,0 -7.69676,-51.63824 z m 304.93151,0 35.8249,0 0,6.01746 -13.9941,0 0,39.74326 13.9941,0 0,5.87752 -35.8249,0 0,-5.87752 13.8542,0 0,-39.74326 -13.8542,0 0,-6.01746 z m 200.8154,0 34.84529,0 0,6.01746 -26.86869,0 0,15.6734 22.81039,0 0,5.87752 -22.81039,0 0,18.19234 28.82789,0 0,5.87752 -36.80449,0 0,-51.63824 z m -382.03903,4.75799 c -4.45572,5e-5 -7.81336,1.79385 -10.21569,5.4577 -2.40233,3.66391 -3.63847,8.93617 -3.63847,15.6734 0,6.7641 1.23614,12.00954 3.63847,15.6734 2.40233,3.6639 5.75997,5.4577 10.21569,5.4577 4.45568,0 7.93988,-1.7938 10.35564,-5.4577 2.41572,-3.66386 3.63842,-8.9093 3.63847,-15.6734 -5e-5,-6.73723 -1.22275,-12.00949 -3.63847,-15.6734 -2.41576,-3.66385 -5.89996,-5.45765 -10.35564,-5.4577 z m -620.918375,104.95578 47.57995,0 0,6.01747 -19.7316903,0 0,45.62077 -7.97664,0 0,-45.62077 -19.8716197,0 0,-6.01747 z m 104.39601,0 7.97664,0 0,22.53051 21.830795,0 0,-22.53051 7.97664,0 0,51.63824 -7.97664,0 0,-23.09027 -21.830795,0 0,23.09027 -7.97664,0 0,-51.63824 z m 101.037425,0 14.41393,0 c 6.0125,5e-5 10.25944,0.54624 12.59469,1.53935 4.99251,2.06688 7.41684,5.68134 7.41688,10.9154 -4e-5,3.59682 -0.86053,6.55395 -2.65888,8.95623 -1.79843,2.40237 -4.88207,4.65039 -9.09617,6.71717 l 18.33227,23.51009 -9.65593,0 -16.23316,-21.41097 -7.13699,0 0,21.41097 -7.97664,0 0,-51.63824 z m 100.75755,0 34.98526,0 0,6.01747 -27.00862,0 0,15.67339 22.81039,0 0,5.87753 -22.81039,0 0,18.19233 28.82785,0 0,5.87752 -36.80449,0 0,-51.63824 z m 99.63802,0 34.84532,0 0,6.01747 -27.00862,0 0,15.67339 22.95033,0 0,5.87753 -22.95033,0 0,18.19233 28.82785,0 0,5.87752 -36.66455,0 0,-51.63824 z m 91.80132,0 47.57995,0 0,6.01747 -19.73169,0 0,45.62077 -7.97663,0 0,-45.62077 -19.87163,0 0,-6.01747 z m 99.07825,0 6.85711,0 6.29735,42.9619 0.13994,0 7.41688,-32.0465 7.55681,0 7.41688,31.48674 6.71717,-42.40214 6.01746,0 -8.5364,51.63824 -8.5364,0 -7.137,-30.3672 -0.13994,0 -7.13699,30.3672 -9.23611,0 -7.69676,-51.63824 z m 107.61466,0 34.98526,0 0,6.01747 -27.00862,0 0,15.67339 22.81039,0 0,5.87753 -22.81039,0 0,18.19233 28.82785,0 0,5.87752 -36.80449,0 0,-51.63824 z m 99.77797,0 7.9766,0 0,45.76072 27.8483,0 0,5.87752 -35.8249,0 0,-51.63824 z m 91.2415,0 8.2566,0 16.513,41.00273 16.9329,-41.00273 6.7171,0 -20.4313,51.63824 -7.9767,0 -20.0116,-51.63824 z m 107.6147,0 34.84529,0 0,6.01747 -26.86869,0 0,15.67339 22.81039,0 0,5.87753 -22.81039,0 0,18.19233 28.82789,0 0,5.87752 -36.80449,0 0,-51.63824 z m -789.54733,6.01747 0,18.19233 4.19823,0 c 4.2678,5e-5 7.57945,-1.05983 10.07576,-2.93876 2.49624,-1.87888 3.77837,-4.36262 3.7784,-7.55682 -3e-5,-2.97938 -0.91994,-5.05686 -2.79882,-6.1574 -1.87894,-1.10045 -5.44937,-1.53931 -10.49558,-1.53935 l -4.75799,0 z M 695.2951,-88.254207 c 6.81775,4e-5 12.19346,2.37837 16.23316,7.27693 4.03962,4.89865 6.01742,11.49133 6.01747,19.73169 -5e-5,8.26727 -1.97785,14.83307 -6.01747,19.73168 -4.0397,4.89861 -9.41541,7.41688 -16.23316,7.41688 -6.81779,0 -12.33344,-2.51827 -16.3731,-7.41688 -4.03966,-4.89861 -6.01746,-11.46441 -6.01746,-19.73168 0,-8.24036 1.9778,-14.83304 6.01746,-19.73169 4.03966,-4.89856 9.55531,-7.27689 16.3731,-7.27693 z m 298.63421,0 c 4.6435,4e-5 9.87559,0.74171 15.67339,2.37899 l 0,6.99706 c -5.8247,-2.25464 -10.99729,-3.49849 -15.53349,-3.49853 -7.1667,4e-5 -10.7755,2.4455 -10.7755,7.27693 0,1.95949 0.7571,3.5636 2.0992,4.758 1.342,1.19449 3.7932,2.37694 7.4168,3.63847 l 5.0379,1.81923 4.89799,1.67929 c 7.4887,2.63049 11.1952,7.01349 11.1952,13.2944 0,4.77783 -1.9127,8.61652 -5.7375,11.47517 -3.825,2.85864 -8.97839,4.33817 -15.39359,4.33817 -4.4557,0 -10.1534,-1.03301 -17.2127,-2.93876 l 0,-7.8367 c 7.0325,3.16732 12.849,4.75799 17.4926,4.75799 3.9189,0 7.04079,-0.69567 9.37609,-2.23905 2.3352,-1.54339 3.4985,-3.69369 3.4985,-6.29735 0,-1.98627 -0.7168,-3.60381 -2.0991,-4.758 -1.3824,-1.15418 -4.21499,-2.4746 -8.53639,-4.05829 l -5.3178,-1.95917 c -5.2878,-1.9594 -8.862,-3.95064 -10.9154,-6.01746 -2.0534,-2.06679 -3.2186,-4.82074 -3.2186,-8.25653 0,-4.64358 1.6041,-8.22544 4.758,-10.77546 3.1539,-2.54992 7.5771,-3.77836 13.2944,-3.7784 z m -417.16427,1.11952 7.55682,0 23.65003,37.5042 0.13995,0 0,-37.36425 6.43728,0 0,51.63824 -7.27693,0 -23.92992,-37.92402 -0.13994,0 0,37.92402 -6.43729,0 0,-51.77819 z m 199.13607,0 7.4169,0 23.79,37.5042 0,-37.36425 6.5772,0 0,51.63824 -7.4169,0 -23.7899,-37.92402 -0.14,0 0,37.92402 -6.4373,0 0,-51.77819 z m -794.725125,0.13995 16.6529897,0 c 12.07871,4e-5 18.0523503,3.89622 18.0523903,11.89498 -4e-5,3.05999 -0.99851,5.76226 -3.0787,7.97664 -2.08027,2.21447 -4.9453903,3.81858 -8.6763503,4.758 9.5824403,1.95949 14.2739503,6.43442 14.2739903,13.57428 -4e-5,4.07996 -1.3799,7.34755 -4.19823,9.65593 -1.82527,1.52999 -3.82222,2.44218 -6.1574103,2.93876 -2.33525,0.49658 -6.15481,0.83965 -11.33522,0.83965 l -15.5334597,0 0,-51.63824 z m 100.75755,0 34.845315,0 0,5.87752 -26.868675,0 0,15.6734 22.810385,0 0,6.01746 -22.810385,0 0,18.05239 28.827845,0 0,6.01747 -36.804485,0 0,-51.63824 z m 99.777955,0 7.97664,0 0,45.62077 27.70833,0 0,6.01747 -35.68497,0 0,-51.63824 z m 99.2182,0 34.98526,0 0,5.87752 -27.00862,0 0,15.6734 22.81039,0 0,6.01746 -22.81039,0 0,18.05239 28.82785,0 0,6.01747 -36.80449,0 0,-51.63824 z m 91.3815,0 8.39646,0 16.51304,41.00272 16.93287,-41.00272 6.71717,0 -20.4314,51.63824 -7.97663,0 -20.15151,-51.63824 z m 107.7546,0 34.84531,0 0,5.87752 -27.00862,0 0,15.6734 22.95033,0 0,6.01746 -22.95033,0 0,18.05239 28.82786,0 0,6.01747 -36.66455,0 0,-51.63824 z m 398.13222,0 34.8453,0 0,5.87752 -27.0086,0 0,15.6734 22.9504,0 0,6.01746 -22.9504,0 0,18.05239 28.8279,0 0,6.01747 -36.6646,0 0,-51.63824 z m -182.90291,4.61805 c -4.45572,4e-5 -7.95331,1.93378 -10.35564,5.59764 -2.40232,3.6639 -3.63846,8.79622 -3.63846,15.53346 0,6.7641 1.23614,12.00953 3.63846,15.67339 2.40233,3.66391 5.89992,5.4577 10.35564,5.4577 4.45568,0 7.79993,-1.79379 10.2157,-5.4577 2.41572,-3.66386 3.63842,-8.90929 3.63846,-15.67339 -4e-5,-6.73724 -1.22274,-11.86956 -3.63846,-15.53346 -2.41577,-3.66386 -5.76002,-5.5976 -10.2157,-5.59764 z m -706.282415,1.25947 0,16.3731 2.7988197,0 c 10.68296,5e-5 16.09319,-2.99734 16.09322,-8.95623 -3e-5,-2.92568 -1.01193,-4.85749 -3.0787,-5.87752 -2.06684,-1.01993 -6.10295,-1.53931 -12.03493,-1.53935 l -3.7784097,0 z m 0,21.41098 0,18.33227 7.2769397,0 c 5.23409,0 8.80256,-0.46568 10.77546,-1.53935 1.97282,-1.07367 2.9387203,-3.14538 2.9387603,-6.01746 -4e-5,-3.32836 -1.6635503,-5.87726 -4.8979403,-7.8367 -3.23445,-1.9594 -7.59826,-2.93872 -13.15446,-2.93876 l -2.9387597,0 z m 9.6559297,81.025859 c 4.64358,4.5e-5 9.87557,0.881651 15.6734003,2.518939 l 0,6.85711 c -5.8246803,-2.25464 -10.9972403,-3.35854 -15.5334603,-3.358584 -7.16674,4.4e-5 -10.7754697,2.445497 -10.7754597,7.276934 -10e-6,1.959488 0.75702,3.563592 2.0991197,4.757995 1.34207,1.194492 3.79323,2.376938 7.41688,3.638467 l 5.03787,1.819233 4.89794,1.539352 c 7.4887803,2.630488 11.1952403,7.153427 11.1952803,13.434339 -4e-5,4.777834 -1.91269,8.616518 -5.73758,11.475166 -3.8249703,2.858648 -8.9783903,4.198231 -15.3935103,4.198231 -4.45574,0 -10.1534097,-0.89307 -17.2127497,-2.798821 l 0,-7.836698 c 7.0325,3.167325 12.8489997,4.757996 17.4926297,4.757996 3.91885,0 7.04079,-0.835616 9.37605,-2.378998 2.33519,-1.543382 3.4984903,-3.553742 3.4985203,-6.157406 -3e-5,-1.986267 -0.7168003,-3.603807 -2.0991103,-4.757996 -1.38238,-1.154188 -4.21493,-2.474605 -8.53641001,-4.05829 L -5.2497353,50.287417 c -5.2878197,-1.959399 -9.0019597,-3.950636 -11.0553397,-6.017465 -2.05339,-2.066783 -3.07871,-4.820733 -3.0787,-8.256521 -10e-6,-4.64358 1.60409,-8.225443 4.758,-10.77546 3.15388,-2.549927 7.5770997,-3.918304 13.2943897,-3.918349 z m 801.4422953,0 c 4.5631,4.5e-5 9.4865,0.822226 14.6938,2.378998 l 0,7.276934 c -5.3146,-2.442543 -10.3569,-3.638423 -14.9737,-3.638467 -5.3414,4.4e-5 -9.7053,1.958682 -13.1544,5.877523 -3.4492,3.918931 -5.1778,8.907505 -5.1778,14.973691 0,6.093055 1.9854,11.068239 5.8775,14.973691 3.892,3.905453 8.7943,5.877524 14.8337,5.877524 1.3689,0 3.0573,-0.09771 5.1779,-0.419823 l 0,-13.714222 -9.656,0 0,-5.877524 17.6326,0 0,23.929918 c -5.3952,1.717849 -10.562,2.518939 -15.3935,2.518939 -7.9989,0 -14.4459,-2.451185 -19.4518,-7.416875 -5.006,-4.965691 -7.5568,-11.366706 -7.5568,-19.311864 0,-8.13297 2.5642,-14.685435 7.5568,-19.731686 4.9925,-5.046162 11.5392,-7.696712 19.5917,-7.696757 z m -422.34202,1.119528 7.55681,0 23.65004,37.64414 0.13994,0 0,-37.504199 6.43729,0 0,51.638244 -7.41688,0 -23.78998,-37.784081 -0.13994,0 0,37.784081 -6.43728,0 0,-51.778185 z m -295.835355,0.139941 34.845315,0 0,6.017465 -26.868675,0 0,15.673396 22.810385,0 0,5.877524 -22.810385,0 0,18.192335 28.827845,0 0,5.877524 -36.804485,0 0,-51.638244 z m 91.381495,0 8.39646,0 16.51304,41.142665 16.79293,-41.142665 6.85711,0 -20.57133,51.638244 -7.97664,0 -20.01157,-51.638244 z m 107.61466,0 34.98526,0 0,6.017465 -27.00862,0 0,15.673396 22.81039,0 0,5.877524 -22.81039,0 0,18.192335 28.82785,0 0,5.877524 -36.80449,0 0,-51.638244 z m 191.01951,0 6.85712,0 6.1574,42.961899 0.13994,0 7.55682,-32.046498 7.55681,0 7.41688,31.626675 6.71717,-42.542076 6.01746,0 -8.5364,51.638244 -8.67634,0 -6.99706,-30.227265 -0.13994,0 -7.13699,30.227265 -9.23611,0 -7.69676,-51.638244 z m 107.61466,0 34.84532,0 0,6.017465 -26.86868,0 0,15.673396 22.81039,0 0,5.877524 -22.81039,0 0,18.192335 28.82786,0 0,5.877524 -36.8045,0 0,-51.638244 z m 97.81879,0 35.68496,0 0,6.017465 -13.85416,0 0,39.743255 13.85416,0 0,5.877524 -35.68496,0 0,-5.877524 13.85416,0 0,-39.743255 -13.85416,0 0,-6.017465 z m 198.01656,0 7.9766,0 0,22.670448 21.8308,0 0,-22.670448 7.9767,0 0,51.638244 -7.9767,0 0,-23.090272 -21.8308,0 0,23.090272 -7.9766,0 0,-51.638244 z m 94.6001,0 47.71989,0 0,6.017465 -19.87159,0 0,45.620779 -7.9766,0 0,-45.620779 -19.8717,0 0,-6.017465 z M 396.80087,131.0334 c 4.64358,4e-5 9.87556,0.88165 15.67339,2.51894 l 0,6.85711 c -5.82467,-2.25464 -10.99724,-3.35854 -15.53345,-3.35859 -7.16674,5e-5 -10.77547,2.30556 -10.77546,7.13699 -10e-6,1.95949 0.75701,3.5636 2.09911,4.758 1.34207,1.19449 3.79323,2.51688 7.41688,3.77841 l 5.03788,1.67929 4.89793,1.67929 c 7.48879,2.63049 11.19524,7.15343 11.19529,13.43434 -5e-5,4.77784 -1.91269,8.47657 -5.73759,11.33522 -3.82497,2.85865 -8.97839,4.33817 -15.39351,4.33817 -4.45574,0 -10.15341,-0.89307 -17.21275,-2.79882 l 0,-7.83669 c 7.0325,3.16732 12.849,4.75799 17.49263,4.75799 3.91886,0 7.0408,-0.83561 9.37605,-2.379 2.33519,-1.54337 3.49849,-3.55373 3.49853,-6.1574 -4e-5,-1.98627 -0.71681,-3.60381 -2.09912,-4.75799 -1.38238,-1.15419 -4.21492,-2.47461 -8.5364,-4.05829 l -5.31776,-1.95918 c -5.28782,-1.9594 -9.00197,-3.95064 -11.05534,-6.01746 -2.0534,-2.06679 -3.07872,-4.82074 -3.07871,-8.25652 -10e-6,-4.64358 1.60409,-8.36539 4.758,-10.91541 3.15388,-2.54992 7.57711,-3.77836 13.2944,-3.7784 z m 597.12844,0 c 4.6435,4e-5 9.87559,0.88165 15.67339,2.51894 l 0,6.85711 c -5.8247,-2.25464 -10.99729,-3.35854 -15.53349,-3.35859 -7.1667,5e-5 -10.7755,2.30556 -10.7755,7.13699 0,1.95949 0.7571,3.5636 2.0992,4.758 1.342,1.19449 3.7932,2.51688 7.4168,3.77841 l 5.0379,1.67929 4.89799,1.67929 c 7.4887,2.63049 11.1952,7.15343 11.1952,13.43434 0,4.77784 -1.9127,8.47657 -5.7375,11.33522 -3.825,2.85865 -8.97839,4.33817 -15.39359,4.33817 -4.4557,0 -10.1534,-0.89307 -17.2127,-2.79882 l 0,-7.83669 c 7.0325,3.16732 12.849,4.75799 17.4926,4.75799 3.9189,0 7.04079,-0.83561 9.37609,-2.379 2.3352,-1.54337 3.4985,-3.55373 3.4985,-6.1574 0,-1.98627 -0.7168,-3.60381 -2.0991,-4.75799 -1.3824,-1.15419 -4.21499,-2.47461 -8.53639,-4.05829 l -5.3178,-1.95918 c -5.2878,-1.9594 -8.862,-3.95064 -10.9154,-6.01746 -2.0534,-2.06679 -3.2186,-4.82074 -3.2186,-8.25652 0,-4.64358 1.6041,-8.36539 4.758,-10.91541 3.1539,-2.54992 7.5771,-3.77836 13.2944,-3.7784 z m -715.6585,1.11952 7.41687,0 23.78998,37.5042 0,-37.36425 6.57723,0 0,51.63824 -7.41688,0 -23.78997,-37.78408 -0.13994,0 0,37.78408 -6.43729,0 0,-51.77819 z m -297.654585,0.13995 35.82491,0 0,6.01746 -13.8541703,0 0,39.74325 13.8541703,0 0,5.87753 -35.82491,0 0,-5.87753 13.9940997,0 0,-39.74325 -13.9940997,0 0,-6.01746 z m 93.62055,0 47.719895,0 0,6.01746 -19.87163,0 0,45.62078 -7.976635,0 0,-45.62078 -19.87163,0 0,-6.01746 z m 107.194835,0 34.98526,0 0,6.01746 -27.00862,0 0,15.6734 22.81039,0 0,5.87752 -22.81039,0 0,18.19233 28.82785,0 0,5.87753 -36.80449,0 0,-51.63824 z m 296.81494,0 35.82491,0 0,6.01746 -13.85417,0 0,39.74325 13.85417,0 0,5.87753 -35.82491,0 0,-5.87753 13.99411,0 0,-39.74325 -13.99411,0 0,-6.01746 z m 94.74008,0 9.37605,0 13.99411,19.17192 14.83375,-19.17192 7.69675,0 -18.75209,24.2098 19.87162,27.42844 -9.51599,0 -15.25357,-20.99116 -16.23316,20.99116 -7.69676,0 20.29145,-26.30892 -18.61216,-25.32932 z m 98.37855,0 47.7199,0 0,6.01746 -19.87163,0 0,45.62078 -7.97664,0 0,-45.62078 -19.87163,0 0,-6.01746 z m 105.51553,0 35.8249,0 0,6.01746 -13.9941,0 0,39.74325 13.9941,0 0,5.87753 -35.8249,0 0,-5.87753 13.8542,0 0,-39.74325 -13.8542,0 0,-6.01746 z m 101.3173,0 34.8453,0 0,6.01746 -27.0086,0 0,15.6734 22.9504,0 0,5.87752 -22.9504,0 0,18.19233 28.8279,0 0,5.87753 -36.6646,0 0,-51.63824 z m -481.53708,108.4543 c 6.81774,4e-5 12.19345,2.37837 16.23316,7.27693 4.03962,4.89865 6.15735,11.49133 6.1574,19.73169 -5e-5,8.26727 -2.11778,14.83308 -6.1574,19.73168 -4.03971,4.89861 -9.41542,7.41688 -16.23316,7.41688 -6.81781,0 -12.19351,-2.51827 -16.23316,-7.41688 -4.03968,-4.8986 -6.15741,-11.46441 -6.15741,-19.73168 0,-8.24036 2.11773,-14.83304 6.15741,-19.73169 4.03965,-4.89856 9.41535,-7.27689 16.23316,-7.27693 z m 205.43344,0 c 4.56306,4e-5 9.34654,0.68228 14.55387,2.23905 l 0,7.41688 c -5.31467,-2.44254 -10.21704,-3.77836 -14.83375,-3.77841 -5.34154,5e-5 -9.70533,1.95868 -13.15446,5.87752 -3.44918,3.91894 -5.17782,8.90751 -5.17782,14.9737 0,6.11992 1.84552,11.22161 5.73758,15.11363 3.89202,3.89206 8.99371,5.73758 15.11364,5.73758 3.70411,0 7.99509,-0.8662 13.01451,-2.79882 l 0,6.43729 c -5.31467,1.90575 -10.27642,2.93876 -14.97369,2.93876 -8.21357,0 -14.85224,-2.49144 -19.87162,-7.41688 -5.01939,-4.92543 -7.55682,-11.42613 -7.55682,-19.4518 0,-8.13297 2.56426,-14.68544 7.55682,-19.73169 4.99251,-5.04616 11.5392,-7.55677 19.59174,-7.55681 z m 192.69884,0 c 6.8177,4e-5 12.1934,2.37837 16.2331,7.27693 4.0396,4.89865 6.0175,11.49133 6.0175,19.73169 0,8.26727 -1.9779,14.83308 -6.0175,19.73168 -4.0397,4.89861 -9.4154,7.41688 -16.2331,7.41688 -6.8178,0 -12.3335,-2.51827 -16.3731,-7.41688 -4.0397,-4.8986 -6.0175,-11.46441 -6.0175,-19.73168 0,-8.24036 1.9778,-14.83304 6.0175,-19.73169 4.0396,-4.89856 9.5553,-7.27689 16.3731,-7.27693 z m 105.7954,0 c 4.5631,4e-5 9.4865,0.68228 14.6938,2.23905 l 0,7.41688 c -5.3147,-2.44254 -10.357,-3.77836 -14.9737,-3.77841 -5.3415,5e-5 -9.7053,1.95868 -13.1544,5.87752 -3.4492,3.91894 -5.1779,8.90751 -5.1779,14.9737 0,6.11992 1.9855,11.22161 5.8776,15.11363 3.892,3.89206 8.8537,5.73758 14.9737,5.73758 3.7041,0 8.135,-0.8662 13.1544,-2.79882 l 0,6.43729 c -5.3147,1.90575 -10.4164,2.93876 -15.1136,2.93876 -8.2136,0 -14.7123,-2.49144 -19.7317,-7.41688 -5.0194,-4.92543 -7.5568,-11.42613 -7.5568,-19.4518 0,-8.13297 2.4243,-14.68544 7.4168,-19.73169 4.9926,-5.04616 11.5393,-7.55677 19.5918,-7.55681 z m -721.81588,1.11953 7.41687,0 23.78998,37.50419 0,-37.36425 6.43729,0 0,51.63824 -7.27693,0 -23.92992,-37.92402 0,37.92402 -6.43729,0 0,-51.77818 z m -204.034025,0.13994 47.57995,0 0,5.87752 -19.7316903,0 0,45.76072 -7.97664,0 0,-45.76072 -19.8716197,0 0,-5.87752 z m 105.51554,0 35.684955,0 0,5.87752 -13.85416,0 0,39.74325 13.85416,0 0,6.01747 -35.684955,0 0,-6.01747 13.85416,0 0,-39.74325 -13.85416,0 0,-5.87752 z m 200.675445,0 34.98526,0 0,5.87752 -27.00862,0 0,15.6734 22.81039,0 0,6.01746 -22.81039,0 0,18.05239 28.82785,0 0,6.01747 -36.80449,0 0,-51.63824 z m 197.31686,0 35.82491,0 0,5.87752 -13.85417,0 0,39.74325 13.85417,0 0,6.01747 -35.82491,0 0,-6.01747 13.99411,0 0,-39.74325 -13.99411,0 0,-5.87752 z m 201.09527,0 7.97664,0 0,45.62077 27.70833,0 0,6.01747 -35.68497,0 0,-51.63824 z m 296.53509,0 7.8367,0 0,25.32932 21.69079,-25.32932 7.9767,0 -20.85119,24.34974 24.90949,27.2885 -9.516,0 -24.20979,-26.30892 0,26.30892 -7.8367,0 0,-51.63824 z m -579.21598,4.61805 c -4.45574,5e-5 -7.95333,1.93378 -10.35564,5.59764 -2.40234,3.6639 -3.49854,8.79623 -3.49853,15.53346 -10e-6,6.7641 1.09619,12.00954 3.49853,15.67339 2.40231,3.66391 5.8999,5.4577 10.35564,5.4577 4.45568,0 7.93985,-1.79379 10.35563,-5.4577 2.41572,-3.66385 3.49849,-8.90929 3.49853,-15.67339 -4e-5,-6.73723 -1.08281,-11.86956 -3.49853,-15.53346 -2.41578,-3.66386 -5.89995,-5.59759 -10.35563,-5.59764 z m 398.13228,0 c -4.4558,5e-5 -7.9533,1.93378 -10.3557,5.59764 -2.4023,3.6639 -3.4985,8.79623 -3.4985,15.53346 0,6.7641 1.0962,12.00954 3.4985,15.67339 2.4024,3.66391 5.8999,5.4577 10.3557,5.4577 4.4556,0 7.7999,-1.79379 10.2157,-5.4577 2.4157,-3.66385 3.6384,-8.90929 3.6384,-15.67339 0,-6.73723 -1.2227,-11.86956 -3.6384,-15.53346 -2.4158,-3.66386 -5.7601,-5.59759 -10.2157,-5.59764 z M -211.24294,469.41082 c 9.76635,-1.22301 17.19787,13.64262 8.25652,19.73169 -2.23579,1.72264 -4.9377,2.80518 -7.8367,2.51894 -11.68075,0.22793 -13.78887,-19.56568 -2.37899,-21.8308 0.66846,-0.23184 1.30808,-0.33828 1.95917,-0.41983 z m 1413.96424,0 c 8.5581,0.21253 14.9859,12.44853 7.5568,18.89204 -2.0108,2.24725 -5.0959,3.57721 -8.1166,3.35859 -11.7522,0.77216 -14.6462,-18.91515 -3.2186,-21.55092 1.2711,-0.51463 2.5558,-0.73007 3.7784,-0.69971 z"
       id="rect18501" />
  </g>
</svg>
